%YAML 1.1
%TAG !u! tag:unity3d.com,2011:
--- !u!74 &7400000
AnimationClip:
  m_ObjectHideFlags: 0
  m_PrefabParentObject: {fileID: 0}
  m_PrefabInternal: {fileID: 0}
  m_Name: Cookie1
  serializedVersion: 6
  m_Legacy: 0
  m_Compressed: 0
  m_UseHighQualityCurve: 1
  m_RotationCurves:
  - curve:
      serializedVersion: 2
      m_Curve:
      - time: 0
        value: {x: -0, y: -0, z: -0, w: -1}
        inSlope: {x: 0, y: 0, z: 3.14015794, w: .0822293684}
        outSlope: {x: 0, y: 0, z: 3.14015794, w: .0822293684}
        tangentMode: 0
      - time: .0166666675
        value: {x: -0, y: -0, z: .0523359664, w: -.99862951}
        inSlope: {x: 0, y: 0, z: 3.13585424, w: .164342508}
        outSlope: {x: 0, y: 0, z: 3.13585424, w: .164342508}
        tangentMode: 0
      - time: .0333333351
        value: {x: -0, y: -0, z: .104528479, w: -.994521916}
        inSlope: {x: 0, y: 0, z: 3.1229558, w: .328234404}
        outSlope: {x: 0, y: 0, z: 3.1229558, w: .328234404}
        tangentMode: 0
      - time: .0500000045
        value: {x: -0, y: -0, z: .156434506, w: -.987688363}
        inSlope: {x: 0, y: 0, z: 3.10149717, w: .491230488}
        outSlope: {x: 0, y: 0, z: 3.10149717, w: .491230488}
        tangentMode: 0
      - time: .0666666701
        value: {x: -0, y: -0, z: .20791173, w: -.978147566}
        inSlope: {x: 0, y: 0, z: 3.07153702, w: .652876556}
        outSlope: {x: 0, y: 0, z: 3.07153702, w: .652876556}
        tangentMode: 0
      - time: .0833333358
        value: {x: -0, y: -0, z: .258819073, w: -.965925813}
        inSlope: {x: 0, y: 0, z: 3.03315926, w: .812732637}
        outSlope: {x: 0, y: 0, z: 3.03315926, w: .812732637}
        tangentMode: 0
      - time: .100000001
        value: {x: -0, y: -0, z: .309017032, w: -.95105648}
        inSlope: {x: 0, y: 0, z: 2.98646736, w: .970362544}
        outSlope: {x: 0, y: 0, z: 2.98646736, w: .970362544}
        tangentMode: 0
      - time: .116666667
        value: {x: -0, y: -0, z: .35836798, w: -.933580399}
        inSlope: {x: 0, y: 0, z: 2.9315896, w: 1.1253314}
        outSlope: {x: 0, y: 0, z: 2.9315896, w: 1.1253314}
        tangentMode: 0
      - time: .13333334
        value: {x: -0, y: -0, z: .406736702, w: -.91354543}
        inSlope: {x: 0, y: 0, z: 2.86867762, w: 1.27721763}
        outSlope: {x: 0, y: 0, z: 2.86867762, w: 1.27721763}
        tangentMode: 0
      - time: .150000006
        value: {x: -0, y: -0, z: .453990579, w: -.89100647}
        inSlope: {x: 0, y: 0, z: 2.79790092, w: 1.42560136}
        outSlope: {x: 0, y: 0, z: 2.79790092, w: 1.42560136}
        tangentMode: 0
      - time: .166666672
        value: {x: -0, y: -0, z: .50000006, w: -.866025388}
        inSlope: {x: 0, y: 0, z: 2.7194562, w: 1.57007766}
        outSlope: {x: 0, y: 0, z: 2.7194562, w: 1.57007766}
        tangentMode: 0
      - time: .183333337
        value: {x: -0, y: -0, z: .544639111, w: -.838670552}
        inSlope: {x: 0, y: 0, z: 2.63355756, w: 1.71025348}
        outSlope: {x: 0, y: 0, z: 2.63355756, w: 1.71025348}
        tangentMode: 0
      - time: .200000003
        value: {x: -0, y: -0, z: .587785304, w: -.809016943}
        inSlope: {x: 0, y: 0, z: 2.54044008, w: 1.84573901}
        outSlope: {x: 0, y: 0, z: 2.54044008, w: 1.84573901}
        tangentMode: 0
      - time: .216666669
        value: {x: -0, y: -0, z: .629320443, w: -.777145922}
        inSlope: {x: 0, y: 0, z: 2.4403615, w: 1.97616601}
        outSlope: {x: 0, y: 0, z: 2.4403615, w: 1.97616601}
        tangentMode: 0
      - time: .233333334
        value: {x: -0, y: -0, z: .669130683, w: -.743144751}
        inSlope: {x: 0, y: 0, z: 2.33359194, w: 2.10117674}
        outSlope: {x: 0, y: 0, z: 2.33359194, w: 2.10117674}
        tangentMode: 0
      - time: .25
        value: {x: -0, y: -0, z: .707106829, w: -.707106709}
        inSlope: {x: 0, y: 0, z: 2.22042656, w: 2.22042656}
        outSlope: {x: 0, y: 0, z: 2.22042656, w: 2.22042656}
        tangentMode: 0
      - time: .266666681
        value: {x: -0, y: -0, z: .743144929, w: -.669130504}
        inSlope: {x: 0, y: 0, z: 2.10117459, w: 2.33359146}
        outSlope: {x: 0, y: 0, z: 2.10117459, w: 2.33359146}
        tangentMode: 0
      - time: .283333361
        value: {x: -0, y: -0, z: .777146041, w: -.629320264}
        inSlope: {x: 0, y: 0, z: 1.9761641, w: 2.44036102}
        outSlope: {x: 0, y: 0, z: 1.9761641, w: 2.44036102}
        tangentMode: 0
      - time: .300000042
        value: {x: -0, y: -0, z: .809017122, w: -.587785065}
        inSlope: {x: 0, y: 0, z: 1.84573746, w: 2.54043961}
        outSlope: {x: 0, y: 0, z: 1.84573746, w: 2.54043961}
        tangentMode: 0
      - time: .316666722
        value: {x: -0, y: -0, z: .838670671, w: -.544638872}
        inSlope: {x: 0, y: 0, z: 1.71025205, w: 2.63355684}
        outSlope: {x: 0, y: 0, z: 1.71025205, w: 2.63355684}
        tangentMode: 0
      - time: .333333403
        value: {x: -0, y: -0, z: .866025567, w: -.499999762}
        inSlope: {x: 0, y: 0, z: 1.57007813, w: 2.71945715}
        outSlope: {x: 0, y: 0, z: 1.57007813, w: 2.71945715}
        tangentMode: 0
      - time: .350000083
        value: {x: -0, y: -0, z: .891006649, w: -.453990221}
        inSlope: {x: 0, y: 0, z: 1.42560005, w: 2.79790211}
        outSlope: {x: 0, y: 0, z: 1.42560005, w: 2.79790211}
        tangentMode: 0
      - time: .366666764
        value: {x: -0, y: -0, z: .913545609, w: -.406736284}
        inSlope: {x: 0, y: 0, z: 1.277215, w: 2.86867476}
        outSlope: {x: 0, y: 0, z: 1.277215, w: 2.86867476}
        tangentMode: 0
      - time: .383333445
        value: {x: -0, y: -0, z: .933580518, w: -.358367652}
        inSlope: {x: 0, y: 0, z: 1.12533069, w: 2.93159127}
        outSlope: {x: 0, y: 0, z: 1.12533069, w: 2.93159127}
        tangentMode: 0
      - time: .400000125
        value: {x: -0, y: -0, z: .951056659, w: -.309016496}
        inSlope: {x: 0, y: 0, z: .970363438, w: 2.98647261}
        outSlope: {x: 0, y: 0, z: .970363438, w: 2.98647261}
        tangentMode: 0
      - time: .416666806
        value: {x: -0, y: -0, z: .965925992, w: -.258818477}
        inSlope: {x: 0, y: 0, z: .812731922, w: 3.03316021}
        outSlope: {x: 0, y: 0, z: .812731922, w: 3.03316021}
        tangentMode: 0
      - time: .433333486
        value: {x: -0, y: -0, z: .978147745, w: -.207911074}
        inSlope: {x: 0, y: 0, z: .652872384, w: 3.07153845}
        outSlope: {x: 0, y: 0, z: .652872384, w: 3.07153845}
        tangentMode: 0
      - time: .450000167
        value: {x: -0, y: -0, z: .987688422, w: -.156433776}
        inSlope: {x: 0, y: 0, z: .491226494, w: 3.10149479}
        outSlope: {x: 0, y: 0, z: .491226494, w: 3.10149479}
        tangentMode: 0
      - time: .466666847
        value: {x: -0, y: -0, z: .994521976, w: -.104527831}
        inSlope: {x: 0, y: 0, z: .328234166, w: 3.12295294}
        outSlope: {x: 0, y: 0, z: .328234166, w: 3.12295294}
        tangentMode: 0
      - time: .483333528
        value: {x: -0, y: -0, z: .99862957, w: -.0523352586}
        inSlope: {x: 0, y: 0, z: .164340675, w: 3.13585424}
        outSlope: {x: 0, y: 0, z: .164340675, w: 3.13585424}
        tangentMode: 0
      - time: .500000179
        value: {x: -0, y: -0, z: 1, w: 6.39757843e-07}
        inSlope: {x: 0, y: 0, z: -1.78813934e-06, w: 3.14016056}
        outSlope: {x: 0, y: 0, z: -1.78813934e-06, w: 3.14016056}
        tangentMode: 0
      - time: .51666683
        value: {x: -0, y: -0, z: .99862951, w: .0523366556}
        inSlope: {x: 0, y: 0, z: -.164344475, w: 3.13585711}
        outSlope: {x: 0, y: 0, z: -.164344475, w: 3.13585711}
        tangentMode: 0
      - time: .53333348
        value: {x: -0, y: -0, z: .994521856, w: .104529105}
        inSlope: {x: 0, y: 0, z: -.328238308, w: 3.12295461}
        outSlope: {x: 0, y: 0, z: -.328238308, w: 3.12295461}
        tangentMode: 0
      - time: .550000131
        value: {x: -0, y: -0, z: .987688243, w: .156435043}
        inSlope: {x: 0, y: 0, z: -.491230965, w: 3.10149598}
        outSlope: {x: 0, y: 0, z: -.491230965, w: 3.10149598}
        tangentMode: 0
      - time: .566666782
        value: {x: -0, y: -0, z: .978147507, w: .207912207}
        inSlope: {x: 0, y: 0, z: -.652877092, w: 3.07153654}
        outSlope: {x: 0, y: 0, z: -.652877092, w: 3.07153654}
        tangentMode: 0
      - time: .583333433
        value: {x: -0, y: -0, z: .965925694, w: .258819491}
        inSlope: {x: 0, y: 0, z: -.81273514, w: 3.0331583}
        outSlope: {x: 0, y: 0, z: -.81273514, w: 3.0331583}
        tangentMode: 0
      - time: .600000083
        value: {x: -0, y: -0, z: .951056361, w: .30901739}
        inSlope: {x: 0, y: 0, z: -.970363319, w: 2.98646998}
        outSlope: {x: 0, y: 0, z: -.970363319, w: 2.98646998}
        tangentMode: 0
      - time: .616666734
        value: {x: -0, y: -0, z: .933580279, w: .358368397}
        inSlope: {x: 0, y: 0, z: -1.12533259, w: 2.93158841}
        outSlope: {x: 0, y: 0, z: -1.12533259, w: 2.93158841}
        tangentMode: 0
      - time: .633333385
        value: {x: -0, y: -0, z: .91354531, w: .40673691}
        inSlope: {x: 0, y: 0, z: -1.27721906, w: 2.86867523}
        outSlope: {x: 0, y: 0, z: -1.27721906, w: 2.86867523}
        tangentMode: 0
      - time: .650000036
        value: {x: -0, y: -0, z: .891006351, w: .453990817}
        inSlope: {x: 0, y: 0, z: -1.42560267, w: 2.79790258}
        outSlope: {x: 0, y: 0, z: -1.42560267, w: 2.79790258}
        tangentMode: 0
      - time: .666666687
        value: {x: -0, y: -0, z: .866025269, w: .500000238}
        inSlope: {x: 0, y: 0, z: -1.57007909, w: 2.719455}
        outSlope: {x: 0, y: 0, z: -1.57007909, w: 2.719455}
        tangentMode: 0
      - time: .683333337
        value: {x: -0, y: -0, z: .838670433, w: .54463923}
        inSlope: {x: 0, y: 0, z: -1.71025324, w: 2.63355803}
        outSlope: {x: 0, y: 0, z: -1.71025324, w: 2.63355803}
        tangentMode: 0
      - time: .699999988
        value: {x: -0, y: -0, z: .809016883, w: .587785423}
        inSlope: {x: 0, y: 0, z: -1.84573889, w: 2.54044056}
        outSlope: {x: 0, y: 0, z: -1.84573889, w: 2.54044056}
        tangentMode: 0
      - time: .716666639
        value: {x: -0, y: -0, z: .777145863, w: .629320502}
        inSlope: {x: 0, y: 0, z: -1.97616935, w: 2.44036555}
        outSlope: {x: 0, y: 0, z: -1.97616935, w: 2.44036555}
        tangentMode: 0
      - time: .73333329
        value: {x: -0, y: -0, z: .743144631, w: .669130862}
        inSlope: {x: 0, y: 0, z: -2.10117483, w: 2.33359027}
        outSlope: {x: 0, y: 0, z: -2.10117483, w: 2.33359027}
        tangentMode: 0
      - time: .74999994
        value: {x: -0, y: -0, z: .707106769, w: .707106769}
        inSlope: {x: 0, y: 0, z: -2.22042227, w: 2.2204206}
        outSlope: {x: 0, y: 0, z: -2.22042227, w: 2.2204206}
        tangentMode: 0
      - time: .766666591
        value: {x: -0, y: -0, z: .669130623, w: .74314481}
        inSlope: {x: 0, y: 0, z: -2.33359027, w: 2.10117483}
        outSlope: {x: 0, y: 0, z: -2.33359027, w: 2.10117483}
        tangentMode: 0
      - time: .783333242
        value: {x: -0, y: -0, z: .629320502, w: .777145863}
        inSlope: {x: 0, y: 0, z: -2.44036555, w: 1.97616935}
        outSlope: {x: 0, y: 0, z: -2.44036555, w: 1.97616935}
        tangentMode: 0
      - time: .799999893
        value: {x: -0, y: -0, z: .587785184, w: .809017062}
        inSlope: {x: 0, y: 0, z: -2.5404458, w: 1.84574246}
        outSlope: {x: 0, y: 0, z: -2.5404458, w: 1.84574246}
        tangentMode: 0
      - time: .816666543
        value: {x: -0, y: -0, z: .544639051, w: .838670552}
        inSlope: {x: 0, y: 0, z: -2.63355088, w: 1.71024776}
        outSlope: {x: 0, y: 0, z: -2.63355088, w: 1.71024776}
        tangentMode: 0
      - time: .833333194
        value: {x: -0, y: -0, z: .500000238, w: .866025269}
        inSlope: {x: 0, y: 0, z: -2.71944952, w: 1.57007551}
        outSlope: {x: 0, y: 0, z: -2.71944952, w: 1.57007551}
        tangentMode: 0
      - time: .849999845
        value: {x: -0, y: -0, z: .453990817, w: .891006351}
        inSlope: {x: 0, y: 0, z: -2.79790592, w: 1.42560434}
        outSlope: {x: 0, y: 0, z: -2.79790592, w: 1.42560434}
        tangentMode: 0
      - time: .866666496
        value: {x: -0, y: -0, z: .406736791, w: .91354537}
        inSlope: {x: 0, y: 0, z: -2.86868238, w: 1.27722096}
        outSlope: {x: 0, y: 0, z: -2.86868238, w: 1.27722096}
        tangentMode: 0
      - time: .883333147
        value: {x: -0, y: -0, z: .358368158, w: .933580339}
        inSlope: {x: 0, y: 0, z: -2.93158841, w: 1.12533259}
        outSlope: {x: 0, y: 0, z: -2.93158841, w: 1.12533259}
        tangentMode: 0
      - time: .899999797
        value: {x: -0, y: -0, z: .309017271, w: .951056421}
        inSlope: {x: 0, y: 0, z: -2.98645926, w: .970361531}
        outSlope: {x: 0, y: 0, z: -2.98645926, w: .970361531}
        tangentMode: 0
      - time: .916666448
        value: {x: -0, y: -0, z: .25881961, w: .965925694}
        inSlope: {x: 0, y: 0, z: -3.03315878, w: .812733352}
        outSlope: {x: 0, y: 0, z: -3.03315878, w: .812733352}
        tangentMode: 0
      - time: .933333099
        value: {x: -0, y: -0, z: .207912073, w: .978147507}
        inSlope: {x: 0, y: 0, z: -3.07154393, w: .652877092}
        outSlope: {x: 0, y: 0, z: -3.07154393, w: .652877092}
        tangentMode: 0
      - time: .94999975
        value: {x: -0, y: -0, z: .156434909, w: .987688243}
        inSlope: {x: 0, y: 0, z: -3.10149598, w: .491230965}
        outSlope: {x: 0, y: 0, z: -3.10149598, w: .491230965}
        tangentMode: 0
      - time: .9666664
        value: {x: -0, y: -0, z: .104528971, w: .994521856}
        inSlope: {x: 0, y: 0, z: -3.12295437, w: .328238308}
        outSlope: {x: 0, y: 0, z: -3.12295437, w: .328238308}
        tangentMode: 0
      - time: .983333051
        value: {x: -0, y: -0, z: .0523365252, w: .99862951}
        inSlope: {x: 0, y: 0, z: -3.13585377, w: .16434373}
        outSlope: {x: 0, y: 0, z: -3.13585377, w: .16434373}
        tangentMode: 0
      - time: 1
        value: {x: -0, y: -0, z: -3.2584137e-07, w: 1}
        inSlope: {x: 0, y: 0, z: -3.1401577, w: .0822279826}
        outSlope: {x: 0, y: 0, z: -3.1401577, w: .0822279826}
        tangentMode: 0
      m_PreInfinity: 2
      m_PostInfinity: 2
    path: Pivot
  m_CompressedRotationCurves: []
  m_PositionCurves: []
  m_ScaleCurves: []
  m_FloatCurves:
  - curve:
      serializedVersion: 2
      m_Curve:
      - time: 0
        value: 1
        inSlope: Infinity
        outSlope: Infinity
        tangentMode: 31
      - time: 1
        value: 0
        inSlope: Infinity
        outSlope: Infinity
        tangentMode: 31
      m_PreInfinity: 2
      m_PostInfinity: 2
    attribute: m_IsActive
    path: Pivot/Cookie
    classID: 1
    script: {fileID: 0}
  m_PPtrCurves: []
  m_SampleRate: 60
  m_WrapMode: 0
  m_Bounds:
    m_Center: {x: 0, y: 0, z: 0}
    m_Extent: {x: 0, y: 0, z: 0}
  m_ClipBindingConstant:
    genericBindings:
    - path: 1567512304
      attribute: 2
      script: {fileID: 0}
      classID: 4
      customType: 0
      isPPtrCurve: 0
    - path: 970672024
      attribute: 2086281974
      script: {fileID: 0}
      classID: 1
      customType: 0
      isPPtrCurve: 0
    pptrCurveMapping: []
  m_AnimationClipSettings:
    serializedVersion: 2
    m_StartTime: 0
    m_StopTime: 1
    m_OrientationOffsetY: 0
    m_Level: 0
    m_CycleOffset: 0
    m_LoopTime: 1
    m_LoopBlend: 0
    m_LoopBlendOrientation: 0
    m_LoopBlendPositionY: 0
    m_LoopBlendPositionXZ: 0
    m_KeepOriginalOrientation: 0
    m_KeepOriginalPositionY: 1
    m_KeepOriginalPositionXZ: 0
    m_HeightFromFeet: 0
    m_Mirror: 0
  m_EditorCurves:
  - curve:
      serializedVersion: 2
      m_Curve:
      - time: 0
        value: 1
        inSlope: Infinity
        outSlope: Infinity
        tangentMode: 31
      - time: 1
        value: 0
        inSlope: Infinity
        outSlope: Infinity
        tangentMode: 31
      m_PreInfinity: 2
      m_PostInfinity: 2
    attribute: m_IsActive
    path: Pivot/Cookie
    classID: 1
    script: {fileID: 0}
  - curve:
      serializedVersion: 2
      m_Curve:
      - time: 0
        value: -0
        inSlope: 0
        outSlope: 0
        tangentMode: 0
      - time: .0166666675
        value: -0
        inSlope: 0
        outSlope: 0
        tangentMode: 0
      - time: .0333333351
        value: -0
        inSlope: 0
        outSlope: 0
        tangentMode: 0
      - time: .0500000045
        value: -0
        inSlope: 0
        outSlope: 0
        tangentMode: 0
      - time: .0666666701
        value: -0
        inSlope: 0
        outSlope: 0
        tangentMode: 0
      - time: .0833333358
        value: -0
        inSlope: 0
        outSlope: 0
        tangentMode: 0
      - time: .100000001
        value: -0
        inSlope: 0
        outSlope: 0
        tangentMode: 0
      - time: .116666667
        value: -0
        inSlope: 0
        outSlope: 0
        tangentMode: 0
      - time: .13333334
        value: -0
        inSlope: 0
        outSlope: 0
        tangentMode: 0
      - time: .150000006
        value: -0
        inSlope: 0
        outSlope: 0
        tangentMode: 0
      - time: .166666672
        value: -0
        inSlope: 0
        outSlope: 0
        tangentMode: 0
      - time: .183333337
        value: -0
        inSlope: 0
        outSlope: 0
        tangentMode: 0
      - time: .200000003
        value: -0
        inSlope: 0
        outSlope: 0
        tangentMode: 0
      - time: .216666669
        value: -0
        inSlope: 0
        outSlope: 0
        tangentMode: 0
      - time: .233333334
        value: -0
        inSlope: 0
        outSlope: 0
        tangentMode: 0
      - time: .25
        value: -0
        inSlope: 0
        outSlope: 0
        tangentMode: 0
      - time: .266666681
        value: -0
        inSlope: 0
        outSlope: 0
        tangentMode: 0
      - time: .283333361
        value: -0
        inSlope: 0
        outSlope: 0
        tangentMode: 0
      - time: .300000042
        value: -0
        inSlope: 0
        outSlope: 0
        tangentMode: 0
      - time: .316666722
        value: -0
        inSlope: 0
        outSlope: 0
        tangentMode: 0
      - time: .333333403
        value: -0
        inSlope: 0
        outSlope: 0
        tangentMode: 0
      - time: .350000083
        value: -0
        inSlope: 0
        outSlope: 0
        tangentMode: 0
      - time: .366666764
        value: -0
        inSlope: 0
        outSlope: 0
        tangentMode: 0
      - time: .383333445
        value: -0
        inSlope: 0
        outSlope: 0
        tangentMode: 0
      - time: .400000125
        value: -0
        inSlope: 0
        outSlope: 0
        tangentMode: 0
      - time: .416666806
        value: -0
        inSlope: 0
        outSlope: 0
        tangentMode: 0
      - time: .433333486
        value: -0
        inSlope: 0
        outSlope: 0
        tangentMode: 0
      - time: .450000167
        value: -0
        inSlope: 0
        outSlope: 0
        tangentMode: 0
      - time: .466666847
        value: -0
        inSlope: 0
        outSlope: 0
        tangentMode: 0
      - time: .483333528
        value: -0
        inSlope: 0
        outSlope: 0
        tangentMode: 0
      - time: .500000179
        value: -0
        inSlope: 0
        outSlope: 0
        tangentMode: 0
      - time: .51666683
        value: -0
        inSlope: 0
        outSlope: 0
        tangentMode: 0
      - time: .53333348
        value: -0
        inSlope: 0
        outSlope: 0
        tangentMode: 0
      - time: .550000131
        value: -0
        inSlope: 0
        outSlope: 0
        tangentMode: 0
      - time: .566666782
        value: -0
        inSlope: 0
        outSlope: 0
        tangentMode: 0
      - time: .583333433
        value: -0
        inSlope: 0
        outSlope: 0
        tangentMode: 0
      - time: .600000083
        value: -0
        inSlope: 0
        outSlope: 0
        tangentMode: 0
      - time: .616666734
        value: -0
        inSlope: 0
        outSlope: 0
        tangentMode: 0
      - time: .633333385
        value: -0
        inSlope: 0
        outSlope: 0
        tangentMode: 0
      - time: .650000036
        value: -0
        inSlope: 0
        outSlope: 0
        tangentMode: 0
      - time: .666666687
        value: -0
        inSlope: 0
        outSlope: 0
        tangentMode: 0
      - time: .683333337
        value: -0
        inSlope: 0
        outSlope: 0
        tangentMode: 0
      - time: .699999988
        value: -0
        inSlope: 0
        outSlope: 0
        tangentMode: 0
      - time: .716666639
        value: -0
        inSlope: 0
        outSlope: 0
        tangentMode: 0
      - time: .73333329
        value: -0
        inSlope: 0
        outSlope: 0
        tangentMode: 0
      - time: .74999994
        value: -0
        inSlope: 0
        outSlope: 0
        tangentMode: 0
      - time: .766666591
        value: -0
        inSlope: 0
        outSlope: 0
        tangentMode: 0
      - time: .783333242
        value: -0
        inSlope: 0
        outSlope: 0
        tangentMode: 0
      - time: .799999893
        value: -0
        inSlope: 0
        outSlope: 0
        tangentMode: 0
      - time: .816666543
        value: -0
        inSlope: 0
        outSlope: 0
        tangentMode: 0
      - time: .833333194
        value: -0
        inSlope: 0
        outSlope: 0
        tangentMode: 0
      - time: .849999845
        value: -0
        inSlope: 0
        outSlope: 0
        tangentMode: 0
      - time: .866666496
        value: -0
        inSlope: 0
        outSlope: 0
        tangentMode: 0
      - time: .883333147
        value: -0
        inSlope: 0
        outSlope: 0
        tangentMode: 0
      - time: .899999797
        value: -0
        inSlope: 0
        outSlope: 0
        tangentMode: 0
      - time: .916666448
        value: -0
        inSlope: 0
        outSlope: 0
        tangentMode: 0
      - time: .933333099
        value: -0
        inSlope: 0
        outSlope: 0
        tangentMode: 0
      - time: .94999975
        value: -0
        inSlope: 0
        outSlope: 0
        tangentMode: 0
      - time: .9666664
        value: -0
        inSlope: 0
        outSlope: 0
        tangentMode: 0
      - time: .983333051
        value: -0
        inSlope: 0
        outSlope: 0
        tangentMode: 0
      - time: 1
        value: -0
        inSlope: 0
        outSlope: 0
        tangentMode: 0
      m_PreInfinity: 2
      m_PostInfinity: 2
    attribute: m_LocalRotation.x
    path: Pivot
    classID: 4
    script: {fileID: 0}
  - curve:
      serializedVersion: 2
      m_Curve:
      - time: 0
        value: -0
        inSlope: 0
        outSlope: 0
        tangentMode: 0
      - time: .0166666675
        value: -0
        inSlope: 0
        outSlope: 0
        tangentMode: 0
      - time: .0333333351
        value: -0
        inSlope: 0
        outSlope: 0
        tangentMode: 0
      - time: .0500000045
        value: -0
        inSlope: 0
        outSlope: 0
        tangentMode: 0
      - time: .0666666701
        value: -0
        inSlope: 0
        outSlope: 0
        tangentMode: 0
      - time: .0833333358
        value: -0
        inSlope: 0
        outSlope: 0
        tangentMode: 0
      - time: .100000001
        value: -0
        inSlope: 0
        outSlope: 0
        tangentMode: 0
      - time: .116666667
        value: -0
        inSlope: 0
        outSlope: 0
        tangentMode: 0
      - time: .13333334
        value: -0
        inSlope: 0
        outSlope: 0
        tangentMode: 0
      - time: .150000006
        value: -0
        inSlope: 0
        outSlope: 0
        tangentMode: 0
      - time: .166666672
        value: -0
        inSlope: 0
        outSlope: 0
        tangentMode: 0
      - time: .183333337
        value: -0
        inSlope: 0
        outSlope: 0
        tangentMode: 0
      - time: .200000003
        value: -0
        inSlope: 0
        outSlope: 0
        tangentMode: 0
      - time: .216666669
        value: -0
        inSlope: 0
        outSlope: 0
        tangentMode: 0
      - time: .233333334
        value: -0
        inSlope: 0
        outSlope: 0
        tangentMode: 0
      - time: .25
        value: -0
        inSlope: 0
        outSlope: 0
        tangentMode: 0
      - time: .266666681
        value: -0
        inSlope: 0
        outSlope: 0
        tangentMode: 0
      - time: .283333361
        value: -0
        inSlope: 0
        outSlope: 0
        tangentMode: 0
      - time: .300000042
        value: -0
        inSlope: 0
        outSlope: 0
        tangentMode: 0
      - time: .316666722
        value: -0
        inSlope: 0
        outSlope: 0
        tangentMode: 0
      - time: .333333403
        value: -0
        inSlope: 0
        outSlope: 0
        tangentMode: 0
      - time: .350000083
        value: -0
        inSlope: 0
        outSlope: 0
        tangentMode: 0
      - time: .366666764
        value: -0
        inSlope: 0
        outSlope: 0
        tangentMode: 0
      - time: .383333445
        value: -0
        inSlope: 0
        outSlope: 0
        tangentMode: 0
      - time: .400000125
        value: -0
        inSlope: 0
        outSlope: 0
        tangentMode: 0
      - time: .416666806
        value: -0
        inSlope: 0
        outSlope: 0
        tangentMode: 0
      - time: .433333486
        value: -0
        inSlope: 0
        outSlope: 0
        tangentMode: 0
      - time: .450000167
        value: -0
        inSlope: 0
        outSlope: 0
        tangentMode: 0
      - time: .466666847
        value: -0
        inSlope: 0
        outSlope: 0
        tangentMode: 0
      - time: .483333528
        value: -0
        inSlope: 0
        outSlope: 0
        tangentMode: 0
      - time: .500000179
        value: -0
        inSlope: 0
        outSlope: 0
        tangentMode: 0
      - time: .51666683
        value: -0
        inSlope: 0
        outSlope: 0
        tangentMode: 0
      - time: .53333348
        value: -0
        inSlope: 0
        outSlope: 0
        tangentMode: 0
      - time: .550000131
        value: -0
        inSlope: 0
        outSlope: 0
        tangentMode: 0
      - time: .566666782
        value: -0
        inSlope: 0
        outSlope: 0
        tangentMode: 0
      - time: .583333433
        value: -0
        inSlope: 0
        outSlope: 0
        tangentMode: 0
      - time: .600000083
        value: -0
        inSlope: 0
        outSlope: 0
        tangentMode: 0
      - time: .616666734
        value: -0
        inSlope: 0
        outSlope: 0
        tangentMode: 0
      - time: .633333385
        value: -0
        inSlope: 0
        outSlope: 0
        tangentMode: 0
      - time: .650000036
        value: -0
        inSlope: 0
        outSlope: 0
        tangentMode: 0
      - time: .666666687
        value: -0
        inSlope: 0
        outSlope: 0
        tangentMode: 0
      - time: .683333337
        value: -0
        inSlope: 0
        outSlope: 0
        tangentMode: 0
      - time: .699999988
        value: -0
        inSlope: 0
        outSlope: 0
        tangentMode: 0
      - time: .716666639
        value: -0
        inSlope: 0
        outSlope: 0
        tangentMode: 0
      - time: .73333329
        value: -0
        inSlope: 0
        outSlope: 0
        tangentMode: 0
      - time: .74999994
        value: -0
        inSlope: 0
        outSlope: 0
        tangentMode: 0
      - time: .766666591
        value: -0
        inSlope: 0
        outSlope: 0
        tangentMode: 0
      - time: .783333242
        value: -0
        inSlope: 0
        outSlope: 0
        tangentMode: 0
      - time: .799999893
        value: -0
        inSlope: 0
        outSlope: 0
        tangentMode: 0
      - time: .816666543
        value: -0
        inSlope: 0
        outSlope: 0
        tangentMode: 0
      - time: .833333194
        value: -0
        inSlope: 0
        outSlope: 0
        tangentMode: 0
      - time: .849999845
        value: -0
        inSlope: 0
        outSlope: 0
        tangentMode: 0
      - time: .866666496
        value: -0
        inSlope: 0
        outSlope: 0
        tangentMode: 0
      - time: .883333147
        value: -0
        inSlope: 0
        outSlope: 0
        tangentMode: 0
      - time: .899999797
        value: -0
        inSlope: 0
        outSlope: 0
        tangentMode: 0
      - time: .916666448
        value: -0
        inSlope: 0
        outSlope: 0
        tangentMode: 0
      - time: .933333099
        value: -0
        inSlope: 0
        outSlope: 0
        tangentMode: 0
      - time: .94999975
        value: -0
        inSlope: 0
        outSlope: 0
        tangentMode: 0
      - time: .9666664
        value: -0
        inSlope: 0
        outSlope: 0
        tangentMode: 0
      - time: .983333051
        value: -0
        inSlope: 0
        outSlope: 0
        tangentMode: 0
      - time: 1
        value: -0
        inSlope: 0
        outSlope: 0
        tangentMode: 0
      m_PreInfinity: 2
      m_PostInfinity: 2
    attribute: m_LocalRotation.y
    path: Pivot
    classID: 4
    script: {fileID: 0}
  - curve:
      serializedVersion: 2
      m_Curve:
      - time: 0
        value: -0
        inSlope: 3.14015794
        outSlope: 3.14015794
        tangentMode: 0
      - time: .0166666675
        value: .0523359664
        inSlope: 3.13585424
        outSlope: 3.13585424
        tangentMode: 0
      - time: .0333333351
        value: .104528479
        inSlope: 3.1229558
        outSlope: 3.1229558
        tangentMode: 0
      - time: .0500000045
        value: .156434506
        inSlope: 3.10149717
        outSlope: 3.10149717
        tangentMode: 0
      - time: .0666666701
        value: .20791173
        inSlope: 3.07153702
        outSlope: 3.07153702
        tangentMode: 0
      - time: .0833333358
        value: .258819073
        inSlope: 3.03315926
        outSlope: 3.03315926
        tangentMode: 0
      - time: .100000001
        value: .309017032
        inSlope: 2.98646736
        outSlope: 2.98646736
        tangentMode: 0
      - time: .116666667
        value: .35836798
        inSlope: 2.9315896
        outSlope: 2.9315896
        tangentMode: 0
      - time: .13333334
        value: .406736702
        inSlope: 2.86867762
        outSlope: 2.86867762
        tangentMode: 0
      - time: .150000006
        value: .453990579
        inSlope: 2.79790092
        outSlope: 2.79790092
        tangentMode: 0
      - time: .166666672
        value: .50000006
        inSlope: 2.7194562
        outSlope: 2.7194562
        tangentMode: 0
      - time: .183333337
        value: .544639111
        inSlope: 2.63355756
        outSlope: 2.63355756
        tangentMode: 0
      - time: .200000003
        value: .587785304
        inSlope: 2.54044008
        outSlope: 2.54044008
        tangentMode: 0
      - time: .216666669
        value: .629320443
        inSlope: 2.4403615
        outSlope: 2.4403615
        tangentMode: 0
      - time: .233333334
        value: .669130683
        inSlope: 2.33359194
        outSlope: 2.33359194
        tangentMode: 0
      - time: .25
        value: .707106829
        inSlope: 2.22042656
        outSlope: 2.22042656
        tangentMode: 0
      - time: .266666681
        value: .743144929
        inSlope: 2.10117459
        outSlope: 2.10117459
        tangentMode: 0
      - time: .283333361
        value: .777146041
        inSlope: 1.9761641
        outSlope: 1.9761641
        tangentMode: 0
      - time: .300000042
        value: .809017122
        inSlope: 1.84573746
        outSlope: 1.84573746
        tangentMode: 0
      - time: .316666722
        value: .838670671
        inSlope: 1.71025205
        outSlope: 1.71025205
        tangentMode: 0
      - time: .333333403
        value: .866025567
        inSlope: 1.57007813
        outSlope: 1.57007813
        tangentMode: 0
      - time: .350000083
        value: .891006649
        inSlope: 1.42560005
        outSlope: 1.42560005
        tangentMode: 0
      - time: .366666764
        value: .913545609
        inSlope: 1.277215
        outSlope: 1.277215
        tangentMode: 0
      - time: .383333445
        value: .933580518
        inSlope: 1.12533069
        outSlope: 1.12533069
        tangentMode: 0
      - time: .400000125
        value: .951056659
        inSlope: .970363438
        outSlope: .970363438
        tangentMode: 0
      - time: .416666806
        value: .965925992
        inSlope: .812731922
        outSlope: .812731922
        tangentMode: 0
      - time: .433333486
        value: .978147745
        inSlope: .652872384
        outSlope: .652872384
        tangentMode: 0
      - time: .450000167
        value: .987688422
        inSlope: .491226494
        outSlope: .491226494
        tangentMode: 0
      - time: .466666847
        value: .994521976
        inSlope: .328234166
        outSlope: .328234166
        tangentMode: 0
      - time: .483333528
        value: .99862957
        inSlope: .164340675
        outSlope: .164340675
        tangentMode: 0
      - time: .500000179
        value: 1
        inSlope: -1.78813934e-06
        outSlope: -1.78813934e-06
        tangentMode: 0
      - time: .51666683
        value: .99862951
        inSlope: -.164344475
        outSlope: -.164344475
        tangentMode: 0
      - time: .53333348
        value: .994521856
        inSlope: -.328238308
        outSlope: -.328238308
        tangentMode: 0
      - time: .550000131
        value: .987688243
        inSlope: -.491230965
        outSlope: -.491230965
        tangentMode: 0
      - time: .566666782
        value: .978147507
        inSlope: -.652877092
        outSlope: -.652877092
        tangentMode: 0
      - time: .583333433
        value: .965925694
        inSlope: -.81273514
        outSlope: -.81273514
        tangentMode: 0
      - time: .600000083
        value: .951056361
        inSlope: -.970363319
        outSlope: -.970363319
        tangentMode: 0
      - time: .616666734
        value: .933580279
        inSlope: -1.12533259
        outSlope: -1.12533259
        tangentMode: 0
      - time: .633333385
        value: .91354531
        inSlope: -1.27721906
        outSlope: -1.27721906
        tangentMode: 0
      - time: .650000036
        value: .891006351
        inSlope: -1.42560267
        outSlope: -1.42560267
        tangentMode: 0
      - time: .666666687
        value: .866025269
        inSlope: -1.57007909
        outSlope: -1.57007909
        tangentMode: 0
      - time: .683333337
        value: .838670433
        inSlope: -1.71025324
        outSlope: -1.71025324
        tangentMode: 0
      - time: .699999988
        value: .809016883
        inSlope: -1.84573889
        outSlope: -1.84573889
        tangentMode: 0
      - time: .716666639
        value: .777145863
        inSlope: -1.97616935
        outSlope: -1.97616935
        tangentMode: 0
      - time: .73333329
        value: .743144631
        inSlope: -2.10117483
        outSlope: -2.10117483
        tangentMode: 0
      - time: .74999994
        value: .707106769
        inSlope: -2.22042227
        outSlope: -2.22042227
        tangentMode: 0
      - time: .766666591
        value: .669130623
        inSlope: -2.33359027
        outSlope: -2.33359027
        tangentMode: 0
      - time: .783333242
        value: .629320502
        inSlope: -2.44036555
        outSlope: -2.44036555
        tangentMode: 0
      - time: .799999893
        value: .587785184
        inSlope: -2.5404458
        outSlope: -2.5404458
        tangentMode: 0
      - time: .816666543
        value: .544639051
        inSlope: -2.63355088
        outSlope: -2.63355088
        tangentMode: 0
      - time: .833333194
        value: .500000238
        inSlope: -2.71944952
        outSlope: -2.71944952
        tangentMode: 0
      - time: .849999845
        value: .453990817
        inSlope: -2.79790592
        outSlope: -2.79790592
        tangentMode: 0
      - time: .866666496
        value: .406736791
        inSlope: -2.86868238
        outSlope: -2.86868238
        tangentMode: 0
      - time: .883333147
        value: .358368158
        inSlope: -2.93158841
        outSlope: -2.93158841
        tangentMode: 0
      - time: .899999797
        value: .309017271
        inSlope: -2.98645926
        outSlope: -2.98645926
        tangentMode: 0
      - time: .916666448
        value: .25881961
        inSlope: -3.03315878
        outSlope: -3.03315878
        tangentMode: 0
      - time: .933333099
        value: .207912073
        inSlope: -3.07154393
        outSlope: -3.07154393
        tangentMode: 0
      - time: .94999975
        value: .156434909
        inSlope: -3.10149598
        outSlope: -3.10149598
        tangentMode: 0
      - time: .9666664
        value: .104528971
        inSlope: -3.12295437
        outSlope: -3.12295437
        tangentMode: 0
      - time: .983333051
        value: .0523365252
        inSlope: -3.13585377
        outSlope: -3.13585377
        tangentMode: 0
      - time: 1
        value: -3.2584137e-07
        inSlope: -3.1401577
        outSlope: -3.1401577
        tangentMode: 0
      m_PreInfinity: 2
      m_PostInfinity: 2
    attribute: m_LocalRotation.z
    path: Pivot
    classID: 4
    script: {fileID: 0}
  - curve:
      serializedVersion: 2
      m_Curve:
      - time: 0
        value: -1
        inSlope: .0822293684
        outSlope: .0822293684
        tangentMode: 0
      - time: .0166666675
        value: -.99862951
        inSlope: .164342508
        outSlope: .164342508
        tangentMode: 0
      - time: .0333333351
        value: -.994521916
        inSlope: .328234404
        outSlope: .328234404
        tangentMode: 0
      - time: .0500000045
        value: -.987688363
        inSlope: .491230488
        outSlope: .491230488
        tangentMode: 0
      - time: .0666666701
        value: -.978147566
        inSlope: .652876556
        outSlope: .652876556
        tangentMode: 0
      - time: .0833333358
        value: -.965925813
        inSlope: .812732637
        outSlope: .812732637
        tangentMode: 0
      - time: .100000001
        value: -.95105648
        inSlope: .970362544
        outSlope: .970362544
        tangentMode: 0
      - time: .116666667
        value: -.933580399
        inSlope: 1.1253314
        outSlope: 1.1253314
        tangentMode: 0
      - time: .13333334
        value: -.91354543
        inSlope: 1.27721763
        outSlope: 1.27721763
        tangentMode: 0
      - time: .150000006
        value: -.89100647
        inSlope: 1.42560136
        outSlope: 1.42560136
        tangentMode: 0
      - time: .166666672
        value: -.866025388
        inSlope: 1.57007766
        outSlope: 1.57007766
        tangentMode: 0
      - time: .183333337
        value: -.838670552
        inSlope: 1.71025348
        outSlope: 1.71025348
        tangentMode: 0
      - time: .200000003
        value: -.809016943
        inSlope: 1.84573901
        outSlope: 1.84573901
        tangentMode: 0
      - time: .216666669
        value: -.777145922
        inSlope: 1.97616601
        outSlope: 1.97616601
        tangentMode: 0
      - time: .233333334
        value: -.743144751
        inSlope: 2.10117674
        outSlope: 2.10117674
        tangentMode: 0
      - time: .25
        value: -.707106709
        inSlope: 2.22042656
        outSlope: 2.22042656
        tangentMode: 0
      - time: .266666681
        value: -.669130504
        inSlope: 2.33359146
        outSlope: 2.33359146
        tangentMode: 0
      - time: .283333361
        value: -.629320264
        inSlope: 2.44036102
        outSlope: 2.44036102
        tangentMode: 0
      - time: .300000042
        value: -.587785065
        inSlope: 2.54043961
        outSlope: 2.54043961
        tangentMode: 0
      - time: .316666722
        value: -.544638872
        inSlope: 2.63355684
        outSlope: 2.63355684
        tangentMode: 0
      - time: .333333403
        value: -.499999762
        inSlope: 2.71945715
        outSlope: 2.71945715
        tangentMode: 0
      - time: .350000083
        value: -.453990221
        inSlope: 2.79790211
        outSlope: 2.79790211
        tangentMode: 0
      - time: .366666764
        value: -.406736284
        inSlope: 2.86867476
        outSlope: 2.86867476
        tangentMode: 0
      - time: .383333445
        value: -.358367652
        inSlope: 2.93159127
        outSlope: 2.93159127
        tangentMode: 0
      - time: .400000125
        value: -.309016496
        inSlope: 2.98647261
        outSlope: 2.98647261
        tangentMode: 0
      - time: .416666806
        value: -.258818477
        inSlope: 3.03316021
        outSlope: 3.03316021
        tangentMode: 0
      - time: .433333486
        value: -.207911074
        inSlope: 3.07153845
        outSlope: 3.07153845
        tangentMode: 0
      - time: .450000167
        value: -.156433776
        inSlope: 3.10149479
        outSlope: 3.10149479
        tangentMode: 0
      - time: .466666847
        value: -.104527831
        inSlope: 3.12295294
        outSlope: 3.12295294
        tangentMode: 0
      - time: .483333528
        value: -.0523352586
        inSlope: 3.13585424
        outSlope: 3.13585424
        tangentMode: 0
      - time: .500000179
        value: 6.39757843e-07
        inSlope: 3.14016056
        outSlope: 3.14016056
        tangentMode: 0
      - time: .51666683
        value: .0523366556
        inSlope: 3.13585711
        outSlope: 3.13585711
        tangentMode: 0
      - time: .53333348
        value: .104529105
        inSlope: 3.12295461
        outSlope: 3.12295461
        tangentMode: 0
      - time: .550000131
        value: .156435043
        inSlope: 3.10149598
        outSlope: 3.10149598
        tangentMode: 0
      - time: .566666782
        value: .207912207
        inSlope: 3.07153654
        outSlope: 3.07153654
        tangentMode: 0
      - time: .583333433
        value: .258819491
        inSlope: 3.0331583
        outSlope: 3.0331583
        tangentMode: 0
      - time: .600000083
        value: .30901739
        inSlope: 2.98646998
        outSlope: 2.98646998
        tangentMode: 0
      - time: .616666734
        value: .358368397
        inSlope: 2.93158841
        outSlope: 2.93158841
        tangentMode: 0
      - time: .633333385
        value: .40673691
        inSlope: 2.86867523
        outSlope: 2.86867523
        tangentMode: 0
      - time: .650000036
        value: .453990817
        inSlope: 2.79790258
        outSlope: 2.79790258
        tangentMode: 0
      - time: .666666687
        value: .500000238
        inSlope: 2.719455
        outSlope: 2.719455
        tangentMode: 0
      - time: .683333337
        value: .54463923
        inSlope: 2.63355803
        outSlope: 2.63355803
        tangentMode: 0
      - time: .699999988
        value: .587785423
        inSlope: 2.54044056
        outSlope: 2.54044056
        tangentMode: 0
      - time: .716666639
        value: .629320502
        inSlope: 2.44036555
        outSlope: 2.44036555
        tangentMode: 0
      - time: .73333329
        value: .669130862
        inSlope: 2.33359027
        outSlope: 2.33359027
        tangentMode: 0
      - time: .74999994
        value: .707106769
        inSlope: 2.2204206
        outSlope: 2.2204206
        tangentMode: 0
      - time: .766666591
        value: .74314481
        inSlope: 2.10117483
        outSlope: 2.10117483
        tangentMode: 0
      - time: .783333242
        value: .777145863
        inSlope: 1.97616935
        outSlope: 1.97616935
        tangentMode: 0
      - time: .799999893
        value: .809017062
        inSlope: 1.84574246
        outSlope: 1.84574246
        tangentMode: 0
      - time: .816666543
        value: .838670552
        inSlope: 1.71024776
        outSlope: 1.71024776
        tangentMode: 0
      - time: .833333194
        value: .866025269
        inSlope: 1.57007551
        outSlope: 1.57007551
        tangentMode: 0
      - time: .849999845
        value: .891006351
        inSlope: 1.42560434
        outSlope: 1.42560434
        tangentMode: 0
      - time: .866666496
        value: .91354537
        inSlope: 1.27722096
        outSlope: 1.27722096
        tangentMode: 0
      - time: .883333147
        value: .933580339
        inSlope: 1.12533259
        outSlope: 1.12533259
        tangentMode: 0
      - time: .899999797
        value: .951056421
        inSlope: .970361531
        outSlope: .970361531
        tangentMode: 0
      - time: .916666448
        value: .965925694
        inSlope: .812733352
        outSlope: .812733352
        tangentMode: 0
      - time: .933333099
        value: .978147507
        inSlope: .652877092
        outSlope: .652877092
        tangentMode: 0
      - time: .94999975
        value: .987688243
        inSlope: .491230965
        outSlope: .491230965
        tangentMode: 0
      - time: .9666664
        value: .994521856
        inSlope: .328238308
        outSlope: .328238308
        tangentMode: 0
      - time: .983333051
        value: .99862951
        inSlope: .16434373
        outSlope: .16434373
        tangentMode: 0
      - time: 1
        value: 1
        inSlope: .0822279826
        outSlope: .0822279826
        tangentMode: 0
      m_PreInfinity: 2
      m_PostInfinity: 2
    attribute: m_LocalRotation.w
    path: Pivot
    classID: 4
    script: {fileID: 0}
  m_EulerEditorCurves:
  - curve:
      serializedVersion: 2
      m_Curve:
      - time: 0
        value: 0
        inSlope: 0
        outSlope: 0
        tangentMode: 10
      - time: .25
        value: 0
        inSlope: 0
        outSlope: 0
        tangentMode: 10
      - time: .5
        value: 0
        inSlope: 0
        outSlope: 0
        tangentMode: 10
      - time: .75
        value: 0
        inSlope: 0
        outSlope: 0
        tangentMode: 10
      - time: 1
        value: 0
        inSlope: 0
        outSlope: 0
        tangentMode: 10
      m_PreInfinity: 2
      m_PostInfinity: 2
    attribute: localEulerAnglesBaked.x
    path: Pivot
    classID: 4
    script: {fileID: 0}
  - curve:
      serializedVersion: 2
      m_Curve:
      - time: 0
        value: 0
        inSlope: 0
        outSlope: 0
        tangentMode: 10
      - time: .25
        value: 0
        inSlope: 0
        outSlope: 0
        tangentMode: 10
      - time: .5
        value: 0
        inSlope: 0
        outSlope: 0
        tangentMode: 10
      - time: .75
        value: 0
        inSlope: 0
        outSlope: 0
        tangentMode: 10
      - time: 1
        value: 0
        inSlope: 0
        outSlope: 0
        tangentMode: 10
      m_PreInfinity: 2
      m_PostInfinity: 2
    attribute: localEulerAnglesBaked.y
    path: Pivot
    classID: 4
    script: {fileID: 0}
  - curve:
      serializedVersion: 2
      m_Curve:
      - time: 0
        value: 0
        inSlope: -360
        outSlope: -360
        tangentMode: 10
      - time: .25
        value: -90
        inSlope: -360
        outSlope: -360
        tangentMode: 10
      - time: .5
        value: -180
        inSlope: -360
        outSlope: -360
        tangentMode: 10
      - time: .75
        value: -270
        inSlope: -360
        outSlope: -360
        tangentMode: 10
      - time: 1
        value: -360
        inSlope: -360
        outSlope: -360
        tangentMode: 10
      m_PreInfinity: 2
      m_PostInfinity: 2
    attribute: localEulerAnglesBaked.z
    path: Pivot
    classID: 4
    script: {fileID: 0}
  m_HasGenericRootTransform: 0
  m_HasMotionFloatCurves: 0
  m_GenerateMotionCurves: 0
  m_Events: []
